{
  "name": "apiproyectosenior",
  "version": "1.0.0",
  "description": "back end para la evalucion desarrollador senior",
  "main": "index.js",
  "scripts": {
    "test": "echo \"Error: no test specified\" && exit 1"
  },
  "author": "julio cesar acosta lopez",
  "license": "MIT"
}
